0.000000e+00	1.397345e+01	1.397315e+01
4.000000e-02	1.397295e+01	1.397264e+01
8.000000e-02	1.397251e+01	1.397226e+01
1.200000e-01	1.397212e+01	1.397199e+01
1.600000e-01	1.397171e+01	1.397138e+01
2.000000e-01	1.397079e+01	1.397042e+01
2.400000e-01	1.397241e+01	1.397213e+01
2.800000e-01	1.397150e+01	1.397116e+01
3.200000e-01	1.397219e+01	1.397187e+01
3.600000e-01	1.397055e+01	1.397026e+01
4.000000e-01	1.396803e+01	1.396765e+01
4.400000e-01	1.396689e+01	1.396657e+01
4.800000e-01	1.396587e+01	1.396556e+01
5.200000e-01	1.396497e+01	1.396456e+01
5.600000e-01	1.395868e+01	1.395829e+01
6.000000e-01	1.394898e+01	1.394872e+01
6.400000e-01	1.392770e+01	1.392720e+01
6.800000e-01	1.394145e+01	1.394099e+01
7.200000e-01	1.393139e+01	1.393111e+01
7.600000e-01	1.393103e+01	1.393092e+01
8.000000e-01	1.391753e+01	1.391727e+01
8.400000e-01	1.372640e+01	1.372595e+01
8.800000e-01	1.375920e+01	1.375865e+01
9.200000e-01	1.373535e+01	1.373494e+01
9.600000e-01	1.361995e+01	1.361943e+01
1.000000e+00	1.347166e+01	1.347146e+01
1.040000e+00	1.343329e+01	1.343301e+01
1.080000e+00	1.337928e+01	1.337888e+01
1.120000e+00	1.319297e+01	1.319276e+01
1.160000e+00	1.323293e+01	1.323275e+01
1.200000e+00	1.317375e+01	1.317351e+01
1.240000e+00	1.308278e+01	1.308250e+01
1.280000e+00	1.300777e+01	1.300757e+01
1.320000e+00	1.291708e+01	1.291690e+01
1.360000e+00	1.287096e+01	1.287096e+01
1.400000e+00	1.289146e+01	1.289115e+01
1.440000e+00	1.276626e+01	1.276582e+01
1.480000e+00	1.267413e+01	1.267354e+01
1.520000e+00	1.267160e+01	1.267174e+01
1.560000e+00	1.264093e+01	1.264149e+01
1.600000e+00	1.268019e+01	1.268033e+01
1.640000e+00	1.267705e+01	1.267784e+01
1.680000e+00	1.262196e+01	1.262210e+01
1.720000e+00	1.262998e+01	1.263018e+01
1.760000e+00	1.271586e+01	1.271614e+01
1.800000e+00	1.272944e+01	1.272962e+01
1.840000e+00	1.271428e+01	1.271415e+01
1.880000e+00	1.265069e+01	1.265154e+01
1.920000e+00	1.268577e+01	1.268670e+01
1.960000e+00	1.270370e+01	1.270432e+01
2.000000e+00	1.255825e+01	1.255912e+01
2.040000e+00	1.251886e+01	1.251960e+01
2.080000e+00	1.261957e+01	1.262069e+01
2.120000e+00	1.258070e+01	1.258203e+01
2.160000e+00	1.258278e+01	1.258340e+01
2.200000e+00	1.248096e+01	1.248164e+01
2.240000e+00	1.236162e+01	1.236242e+01
2.280000e+00	1.244396e+01	1.244477e+01
2.320000e+00	1.235552e+01	1.235654e+01
2.360000e+00	1.234050e+01	1.234068e+01
2.400000e+00	1.244920e+01	1.244971e+01
2.440000e+00	1.223545e+01	1.223650e+01
2.480000e+00	1.235874e+01	1.235946e+01
2.520000e+00	1.207906e+01	1.207958e+01
2.560000e+00	1.206325e+01	1.206443e+01
2.600000e+00	1.163258e+01	1.163360e+01
2.640000e+00	1.142097e+01	1.142216e+01
2.680000e+00	1.127480e+01	1.127612e+01
2.720000e+00	1.128374e+01	1.128411e+01
2.760000e+00	1.196505e+01	1.196594e+01
2.800000e+00	1.175221e+01	1.175276e+01
2.840000e+00	1.195642e+01	1.195768e+01
2.880000e+00	1.232889e+01	1.233083e+01
2.920000e+00	1.249525e+01	1.249817e+01
2.960000e+00	1.250988e+01	1.251261e+01
3.000000e+00	1.249904e+01	1.250180e+01
3.040000e+00	1.248159e+01	1.248386e+01
3.080000e+00	1.258812e+01	1.258955e+01
3.120000e+00	1.261356e+01	1.261532e+01
3.160000e+00	1.298718e+01	1.298814e+01
3.200000e+00	1.290566e+01	1.290619e+01
3.240000e+00	1.308872e+01	1.308867e+01
3.280000e+00	1.328781e+01	1.328813e+01
3.320000e+00	1.333264e+01	1.333292e+01
3.360000e+00	1.368766e+01	1.368804e+01
3.400000e+00	1.369644e+01	1.369706e+01
3.440000e+00	1.368877e+01	1.368954e+01
3.480000e+00	1.363436e+01	1.363535e+01
3.520000e+00	1.372120e+01	1.372219e+01
3.560000e+00	1.385386e+01	1.385473e+01
3.600000e+00	1.388234e+01	1.388286e+01
3.640000e+00	1.386481e+01	1.386551e+01
3.680000e+00	1.383397e+01	1.383484e+01
3.720000e+00	1.386207e+01	1.386267e+01
3.760000e+00	1.388814e+01	1.388878e+01
3.800000e+00	1.388336e+01	1.388390e+01
3.840000e+00	1.390310e+01	1.390338e+01
3.880000e+00	1.391145e+01	1.391167e+01
3.920000e+00	1.391853e+01	1.391873e+01
3.960000e+00	1.391665e+01	1.391688e+01
4.000000e+00	1.393311e+01	1.393337e+01
